…
``` r
#reassign working directory
#Magaritte's directory
#setwd("D:/ST558/Project 3/ST558_Project3_GroupF")
#Matthew's directory
setwd("C:\\Users\\Home Pc\\Desktop\\ST558 Project 3 new\\ST558_Project3_GroupF\\")
#read in data set .csv file in full
#make sure that this is a relative path used...
# ./ stays in the same file directory
OnlineNewsPopularity<-read_csv("./OnlineNewsPopularity.csv", show_col_types = FALSE)
#call object OnlineNewsPopularity - our full raw data
OnlineNewsPopularity
```

    ## # A tibble: 39,644 × 61
    ##    url        timed…¹ n_tok…² n_tok…³ n_uni…⁴ n_non…⁵ n_non…⁶ num_h…⁷ num_s…⁸ num_i…⁹ num_v…˟
    ##    <chr>        <dbl>   <dbl>   <dbl>   <dbl>   <dbl>   <dbl>   <dbl>   <dbl>   <dbl>   <dbl>
    ##  1 http://ma…     731      12     219   0.664    1.00   0.815       4       2       1       0
    ##  2 http://ma…     731       9     255   0.605    1.00   0.792       3       1       1       0
    ##  3 http://ma…     731       9     211   0.575    1.00   0.664       3       1       1       0
    ##  4 http://ma…     731       9     531   0.504    1.00   0.666       9       0       1       0
    ##  5 http://ma…     731      13    1072   0.416    1.00   0.541      19      19      20       0
    ##  6 http://ma…     731      10     370   0.560    1.00   0.698       2       2       0       0
    ##  7 http://ma…     731       8     960   0.418    1.00   0.550      21      20      20       0
    ##  8 http://ma…     731      12     989   0.434    1.00   0.572      20      20      20       0
    ##  9 http://ma…     731      11      97   0.670    1.00   0.837       2       0       0       0
    ## 10 http://ma…     731      10     231   0.636    1.00   0.797       4       1       1       1
    ## # … with 39,634 more rows, 50 more variables: average_token_length <dbl>,
    ## #   num_keywords <dbl>, data_channel_is_lifestyle <dbl>,
    ## #   data_channel_is_entertainment <dbl>, data_channel_is_bus <dbl>,
    ## #   data_channel_is_socmed <dbl>, data_channel_is_tech <dbl>, data_channel_is_world <dbl>,
    ## #   kw_min_min <dbl>, kw_max_min <dbl>, kw_avg_min <dbl>, kw_min_max <dbl>,
    ## #   kw_max_max <dbl>, kw_avg_max <dbl>, kw_min_avg <dbl>, kw_max_avg <dbl>,
    ## #   kw_avg_avg <dbl>, self_reference_min_shares <dbl>, self_reference_max_shares <dbl>, …
…
#subsetting the OnlineNewsPopularity full raw data for the data channel of interest -- Lifestyle
Channel <- OnlineNewsPopularity %>% 
               #filter(data_channel_is_lifestyle == 1) %>%
               filter(get(params$channel) == 1) %>%
               # removing non-predictive variables per dataset description
               # remove all data_channel_is_* variables because we already filtered on them and we do not want them included in the model!
               #select( ! c(url, timedelta, starts_with("data_channel_is_" ) ) )
                select( ! c(url, timedelta ) )
#tidyverse way of looking at the dataset -- similar to str()
#glimpse(Channel)
#calling the Channel object to view
Channel
```

    ## # A tibble: 8,427 × 59
    ##    n_tokens…¹ n_tok…² n_uni…³ n_non…⁴ n_non…⁵ num_h…⁶ num_s…⁷ num_i…⁸ num_v…⁹ avera…˟ num_k…˟
    ##         <dbl>   <dbl>   <dbl>   <dbl>   <dbl>   <dbl>   <dbl>   <dbl>   <dbl>   <dbl>   <dbl>
    ##  1         10     231   0.636    1.00   0.797       4       1       1       1    5.09       5
    ##  2          9    1248   0.490    1.00   0.732      11       0       1       0    4.62       8
    ##  3         12     682   0.460    1.00   0.635      10       0       1       0    4.62       6
    ##  4          9     391   0.510    1.00   0.650       9       2       1       1    5.30       7
    ##  5         11     125   0.675    1.00   0.797       1       1       1       0    4.82       6
    ##  6         11     799   0.504    1.00   0.738       8       6       1       0    4.70       6
    ##  7         11     317   0.611    1.00   0.729       7       6       1       0    5.24       5
    ##  8         11     399   0.598    1.00   0.806       8       0       1       0    4.58       7
    ##  9          9     443   0.467    1.00   0.589       3       1       1       0    5.01       6
    ## 10         12     288   0.589    1.00   0.726       5       2       0       0    4.38       6
    ## # … with 8,417 more rows, 48 more variables: data_channel_is_lifestyle <dbl>,
    ## #   data_channel_is_entertainment <dbl>, data_channel_is_bus <dbl>,
    ## #   data_channel_is_socmed <dbl>, data_channel_is_tech <dbl>, data_channel_is_world <dbl>,
    ## #   kw_min_min <dbl>, kw_max_min <dbl>, kw_avg_min <dbl>, kw_min_max <dbl>,
    ## #   kw_max_max <dbl>, kw_avg_max <dbl>, kw_min_avg <dbl>, kw_max_avg <dbl>,
    ## #   kw_avg_avg <dbl>, self_reference_min_shares <dbl>, self_reference_max_shares <dbl>,
    ## #   self_reference_avg_sharess <dbl>, weekday_is_monday <dbl>, weekday_is_tuesday <dbl>, …
…
