…
    ## [1] "D:/ST558/Project 3/ST558_Project3_GroupF"

``` r
#read in data set .csv file in full
#make sure that this is a relative path used
# ./ stays in the same file directory
OnlineNewsPopularity<-read_csv("./OnlineNewsPopularity.csv", show_col_types = FALSE)
#call object OnlineNewsPopularity - our full raw data
OnlineNewsPopularity
```

    ## # A tibble: 39,644 × 61
    ##    url      timed…¹ n_tok…² n_tok…³ n_uni…⁴ n_non…⁵ n_non…⁶ num_h…⁷ num_s…⁸ num_i…⁹ num_v…˟
    ##    <chr>      <dbl>   <dbl>   <dbl>   <dbl>   <dbl>   <dbl>   <dbl>   <dbl>   <dbl>   <dbl>
    ##  1 http://…     731      12     219   0.664    1.00   0.815       4       2       1       0
    ##  2 http://…     731       9     255   0.605    1.00   0.792       3       1       1       0
    ##  3 http://…     731       9     211   0.575    1.00   0.664       3       1       1       0
    ##  4 http://…     731       9     531   0.504    1.00   0.666       9       0       1       0
    ##  5 http://…     731      13    1072   0.416    1.00   0.541      19      19      20       0
    ##  6 http://…     731      10     370   0.560    1.00   0.698       2       2       0       0
    ##  7 http://…     731       8     960   0.418    1.00   0.550      21      20      20       0
    ##  8 http://…     731      12     989   0.434    1.00   0.572      20      20      20       0
    ##  9 http://…     731      11      97   0.670    1.00   0.837       2       0       0       0
    ## 10 http://…     731      10     231   0.636    1.00   0.797       4       1       1       1
    ## # … with 39,634 more rows, 50 more variables: average_token_length <dbl>,
    ## #   num_keywords <dbl>, data_channel_is_lifestyle <dbl>,
    ## #   data_channel_is_entertainment <dbl>, data_channel_is_bus <dbl>,
    ## #   data_channel_is_socmed <dbl>, data_channel_is_tech <dbl>, data_channel_is_world <dbl>,
    ## #   kw_min_min <dbl>, kw_max_min <dbl>, kw_avg_min <dbl>, kw_min_max <dbl>,
    ## #   kw_max_max <dbl>, kw_avg_max <dbl>, kw_min_avg <dbl>, kw_max_avg <dbl>,
    ## #   kw_avg_avg <dbl>, self_reference_min_shares <dbl>, self_reference_max_shares <dbl>, …

We now subset the data for the data channel of interest: Lifestyle.

``` r
#subsetting the OnlineNewsPopularity full raw data for the data channel of interest 
Channel <- OnlineNewsPopularity %>% 
               filter(get(params$channel) == 1) %>%
               # removing non-predictive variables per data set description
                select( ! c(url, timedelta ) )

#calling the Channel object to view
Channel
```

    ## # A tibble: 2,099 × 59
    ##    n_toke…¹ n_tok…² n_uni…³ n_non…⁴ n_non…⁵ num_h…⁶ num_s…⁷ num_i…⁸ num_v…⁹ avera…˟ num_k…˟
    ##       <dbl>   <dbl>   <dbl>   <dbl>   <dbl>   <dbl>   <dbl>   <dbl>   <dbl>   <dbl>   <dbl>
    ##  1        8     960   0.418    1.00   0.550      21      20      20       0    4.65      10
    ##  2       10     187   0.667    1.00   0.800       7       0       1       0    4.66       7
    ##  3       11     103   0.689    1.00   0.806       3       1       1       0    4.84       6
    ##  4       10     243   0.619    1.00   0.824       1       1       0       0    4.38      10
    ##  5        8     204   0.586    1.00   0.698       7       2       1       0    4.67       8
    ##  6       11     315   0.551    1.00   0.702       4       4       1       0    4.38      10
    ##  7       10    1190   0.409    1.00   0.561      25      24      20       0    4.62       8
    ##  8        6     374   0.641    1.00   0.828       7       0       1       0    4.91       8
    ##  9       12     499   0.513    1.00   0.662      14       1       1       0    5.08      10
    ## 10       11     223   0.662    1.00   0.826       5       3       0       0    4.55       6
    ## # … with 2,089 more rows, 48 more variables: data_channel_is_lifestyle <dbl>,
    ## #   data_channel_is_entertainment <dbl>, data_channel_is_bus <dbl>,
    ## #   data_channel_is_socmed <dbl>, data_channel_is_tech <dbl>, data_channel_is_world <dbl>,
    ## #   kw_min_min <dbl>, kw_max_min <dbl>, kw_avg_min <dbl>, kw_min_max <dbl>,
    ## #   kw_max_max <dbl>, kw_avg_max <dbl>, kw_min_avg <dbl>, kw_max_avg <dbl>,
    ## #   kw_avg_avg <dbl>, self_reference_min_shares <dbl>, self_reference_max_shares <dbl>,
    ## #   self_reference_avg_sharess <dbl>, weekday_is_monday <dbl>, weekday_is_tuesday <dbl>, …
…
